EESchema Schematic File Version 2
LIBS:power
LIBS:device
LIBS:transistors
LIBS:conn
LIBS:linear
LIBS:regul
LIBS:74xx
LIBS:cmos4000
LIBS:adc-dac
LIBS:memory
LIBS:xilinx
LIBS:microcontrollers
LIBS:dsp
LIBS:microchip
LIBS:analog_switches
LIBS:motorola
LIBS:texas
LIBS:intel
LIBS:audio
LIBS:interface
LIBS:digital-audio
LIBS:philips
LIBS:display
LIBS:cypress
LIBS:siliconi
LIBS:opto
LIBS:atmel
LIBS:contrib
LIBS:valves
EELAYER 25 0
EELAYER END
$Descr A4 11693 8268
encoding utf-8
Sheet 2 2
Title ""
Date ""
Rev ""
Comp ""
Comment1 ""
Comment2 ""
Comment3 ""
Comment4 ""
$EndDescr
$Comp
L TL072 U?
U 1 1 560D55B7
P 2850 1850
F 0 "U?" H 2800 2050 60  0000 L CNN
F 1 "TL072" H 2800 1600 60  0000 L CNN
F 2 "" H 2850 1850 60  0000 C CNN
F 3 "" H 2850 1850 60  0000 C CNN
	1    2850 1850
	1    0    0    -1  
$EndComp
$Comp
L R R?
U 1 1 560D55BE
P 1250 1750
F 0 "R?" V 1330 1750 50  0000 C CNN
F 1 "4.7k" V 1250 1750 50  0000 C CNN
F 2 "" V 1180 1750 30  0000 C CNN
F 3 "" H 1250 1750 30  0000 C CNN
	1    1250 1750
	0    1    1    0   
$EndComp
$Comp
L R R?
U 1 1 560D55C5
P 1700 1750
F 0 "R?" V 1780 1750 50  0000 C CNN
F 1 "4.7k" V 1700 1750 50  0000 C CNN
F 2 "" V 1630 1750 30  0000 C CNN
F 3 "" H 1700 1750 30  0000 C CNN
	1    1700 1750
	0    1    1    0   
$EndComp
$Comp
L C C?
U 1 1 560D55CC
P 2000 2050
F 0 "C?" H 2025 2150 50  0000 L CNN
F 1 "10n" H 2025 1950 50  0000 L CNN
F 2 "" H 2038 1900 30  0000 C CNN
F 3 "" H 2000 2050 60  0000 C CNN
	1    2000 2050
	1    0    0    -1  
$EndComp
$Comp
L GND #PWR?
U 1 1 560D55D3
P 2000 2300
F 0 "#PWR?" H 2000 2050 50  0001 C CNN
F 1 "GND" H 2000 2150 50  0000 C CNN
F 2 "" H 2000 2300 60  0000 C CNN
F 3 "" H 2000 2300 60  0000 C CNN
	1    2000 2300
	1    0    0    -1  
$EndComp
Wire Wire Line
	2000 2300 2000 2200
Wire Wire Line
	2000 1900 2000 1750
Wire Wire Line
	1850 1750 2350 1750
Connection ~ 2000 1750
Wire Wire Line
	1550 1750 1400 1750
Wire Wire Line
	1000 1750 1100 1750
Wire Wire Line
	2350 1950 2250 1950
Wire Wire Line
	2250 1950 2250 2450
Wire Wire Line
	2250 2450 3350 2450
Wire Wire Line
	3350 2450 3350 950 
$Comp
L C C?
U 1 1 560D55E3
P 2300 1200
F 0 "C?" H 2325 1300 50  0000 L CNN
F 1 "10n" H 2325 1100 50  0000 L CNN
F 2 "" H 2338 1050 30  0000 C CNN
F 3 "" H 2300 1200 60  0000 C CNN
	1    2300 1200
	0    1    1    0   
$EndComp
$Comp
L C C?
U 1 1 560D55EA
P 2300 950
F 0 "C?" H 2325 1050 50  0000 L CNN
F 1 "10n" H 2325 850 50  0000 L CNN
F 2 "" H 2338 800 30  0000 C CNN
F 3 "" H 2300 950 60  0000 C CNN
	1    2300 950 
	0    1    1    0   
$EndComp
Wire Wire Line
	1500 1750 1500 950 
Wire Wire Line
	1500 950  2150 950 
Connection ~ 1500 1750
Wire Wire Line
	3350 950  2450 950 
Connection ~ 3350 1850
Wire Wire Line
	2150 1200 2050 1200
Wire Wire Line
	2050 1200 2050 950 
Connection ~ 2050 950 
Wire Wire Line
	2450 1200 2600 1200
Wire Wire Line
	2600 1200 2600 950 
Connection ~ 2600 950 
Wire Wire Line
	3350 1850 3450 1850
Text GLabel 2750 1450 2    60   Input ~ 0
+15V
Text GLabel 2750 2250 2    60   Input ~ 0
-15V
$Comp
L TL072 U?
U 1 1 560D5A8E
P 5300 1950
F 0 "U?" H 5250 2150 60  0000 L CNN
F 1 "TL072" H 5250 1700 60  0000 L CNN
F 2 "" H 5300 1950 60  0000 C CNN
F 3 "" H 5300 1950 60  0000 C CNN
	1    5300 1950
	1    0    0    -1  
$EndComp
$Comp
L R R?
U 1 1 560D5A94
P 3700 1850
F 0 "R?" V 3780 1850 50  0000 C CNN
F 1 "4.7k" V 3700 1850 50  0000 C CNN
F 2 "" V 3630 1850 30  0000 C CNN
F 3 "" H 3700 1850 30  0000 C CNN
	1    3700 1850
	0    1    1    0   
$EndComp
$Comp
L R R?
U 1 1 560D5A9A
P 4150 1850
F 0 "R?" V 4230 1850 50  0000 C CNN
F 1 "4.7k" V 4150 1850 50  0000 C CNN
F 2 "" V 4080 1850 30  0000 C CNN
F 3 "" H 4150 1850 30  0000 C CNN
	1    4150 1850
	0    1    1    0   
$EndComp
$Comp
L C C?
U 1 1 560D5AA0
P 4450 2150
F 0 "C?" H 4475 2250 50  0000 L CNN
F 1 "10n" H 4475 2050 50  0000 L CNN
F 2 "" H 4488 2000 30  0000 C CNN
F 3 "" H 4450 2150 60  0000 C CNN
	1    4450 2150
	1    0    0    -1  
$EndComp
$Comp
L GND #PWR?
U 1 1 560D5AA6
P 4450 2400
F 0 "#PWR?" H 4450 2150 50  0001 C CNN
F 1 "GND" H 4450 2250 50  0000 C CNN
F 2 "" H 4450 2400 60  0000 C CNN
F 3 "" H 4450 2400 60  0000 C CNN
	1    4450 2400
	1    0    0    -1  
$EndComp
Wire Wire Line
	4450 2400 4450 2300
Wire Wire Line
	4450 2000 4450 1850
Wire Wire Line
	4300 1850 4800 1850
Connection ~ 4450 1850
Wire Wire Line
	4000 1850 3850 1850
Wire Wire Line
	3450 1850 3550 1850
Wire Wire Line
	4800 2050 4700 2050
Wire Wire Line
	4700 2050 4700 2550
Wire Wire Line
	4700 2550 5800 2550
Wire Wire Line
	5800 2550 5800 1050
$Comp
L C C?
U 1 1 560D5AB6
P 4750 1300
F 0 "C?" H 4775 1400 50  0000 L CNN
F 1 "10n" H 4775 1200 50  0000 L CNN
F 2 "" H 4788 1150 30  0000 C CNN
F 3 "" H 4750 1300 60  0000 C CNN
	1    4750 1300
	0    1    1    0   
$EndComp
$Comp
L C C?
U 1 1 560D5ABC
P 4750 1050
F 0 "C?" H 4775 1150 50  0000 L CNN
F 1 "10n" H 4775 950 50  0000 L CNN
F 2 "" H 4788 900 30  0000 C CNN
F 3 "" H 4750 1050 60  0000 C CNN
	1    4750 1050
	0    1    1    0   
$EndComp
Wire Wire Line
	3950 1850 3950 1050
Wire Wire Line
	3950 1050 4600 1050
Connection ~ 3950 1850
Wire Wire Line
	5800 1050 4900 1050
Connection ~ 5800 1950
Wire Wire Line
	4600 1300 4500 1300
Wire Wire Line
	4500 1300 4500 1050
Connection ~ 4500 1050
Wire Wire Line
	4900 1300 5050 1300
Wire Wire Line
	5050 1300 5050 1050
Connection ~ 5050 1050
Wire Wire Line
	5800 1950 5900 1950
Text GLabel 5200 1550 2    60   Input ~ 0
+15V
Text GLabel 5200 2350 2    60   Input ~ 0
-15V
Text HLabel 1000 1750 0    60   Input ~ 0
CROSSOVER_LEFT
$EndSCHEMATC
